{
    "default": {
        "oscillators": [
            {
                "active": true,
                "partials": [
                    {"amplitude": 0.8},
                    {"amplitude": 0.3},
                    {"amplitude": 0.1},
                    {"amplitude": 0.03}
                ],
                "adsr": {
                    "attack": 0.2,
                    "decay": 0.05,
                    "sustain": 1.0,
                    "release": 0.01
                }
            }, {
                "partials": [
                    {"amplitude": 0.8}
                ],
                "adsr": {
                    "attack": 0.2,
                    "decay": 0.05,
                    "sustain": 1.0,
                    "release": 0.01
                }
            }, {
                "partials": [
                    {"amplitude": 0.8}
                ],
                "adsr": {
                    "attack": 0.2,
                    "decay": 0.05,
                    "sustain": 1.0,
                    "release": 0.01
                }
            }, {
                "partials": [
                    {"amplitude": 0.8}
                ],
                "adsr": {
                    "attack": 0.2,
                    "decay": 0.05,
                    "sustain": 1.0,
                    "release": 0.01
                }
            }
        ]
    },
    "last_saved": ""
}
